<div id="logoheader">
    <div id="logo"></div>
    <div id="shoppingcartlogo">
        <span class="linkcart"></span>
    </div>
</div>

<ul id="progress">
    <li class="first">Warenkorb</li>
    <li class="">Bestellen</li>
    <li class="">Versand</li>
    <li class="">Bestätigen</li>
    <li class="current">Bezahlen</li>
    <li class="last ">Fertig</li>
</ul>
<div style="clear:both"></div>
<div id="pmcontent">
