
Notification: 
Amount = EUR 777700
Event Code = AUTHORISATION
Event Date = 
Merchant Account Code = PersonalNOVELDE
Merchant Reference = Order1930973
Original Reference = 
Psp Reference = 1111111
Reason = 
Success = 1
Payment Method = mc

Available Operations: 
	


Additional Data:
	=


Notification: 
Amount = EUR 777700
Event Code = AUTHORISATION
Event Date = 
Merchant Account Code = PersonalNOVELDE
Merchant Reference = Order0
Original Reference = 
Psp Reference = 1111111
Reason = 
Success = 1
Payment Method = mc

Available Operations: 
	


Additional Data:
	=


Notification: 
Amount = EUR 2495
Event Code = AUTHORISATION
Event Date = 2012-12-27T08:29:10.468+01:00
Merchant Account Code = PersonalNOVELDE
Merchant Reference = Order1930979
Original Reference = 
Psp Reference = 8613565933503638
Reason = 74393:1111:6/2016
Success = 1
Payment Method = mc

Available Operations: 
	CANCEL
	CAPTURE
	REFUND


Additional Data:
	=


Notification: 
Amount = EUR 2495
Event Code = AUTHORISATION
Event Date = 2012-12-27T08:29:32.961+01:00
Merchant Account Code = PersonalNOVELDE
Merchant Reference = Order1930979
Original Reference = 
Psp Reference = 8613565933503638
Reason = 74393:1111:6/2016
Success = 1
Payment Method = mc

Available Operations: 
	CANCEL
	CAPTURE
	REFUND


Additional Data:
	=


Notification: 
Amount = EUR 100000
Event Code = AUTHORISATION
Event Date = 
Merchant Account Code = PersonalNOVELDE
Merchant Reference = Order411220000
Original Reference = 
Psp Reference = 
Reason = 
Success = 1
Payment Method = paypal

Available Operations: 
	


Additional Data:
	=


Notification: 
Amount = EUR 100000
Event Code = AUTHORISATION
Event Date = 
Merchant Account Code = PersonalNOVELDE
Merchant Reference = Order411220000
Original Reference = 
Psp Reference = 
Reason = 
Success = 1
Payment Method = bankTransfer

Available Operations: 
	


Additional Data:
	=

